{
    "users": ["albert","patrick"],
    "state": "",
    "last_transmission" : "",
    "chats": [
        {
            "timestamp": "2023-01-21T12:00:00",
            "user": "albert",
            "content": {
                "text": "Message Handler test",
                "file": ""
            }
        }
    ]
}