{
    "users": ["alice","bob"],
    "status": "unread",
    "last_transmission" : "",
    "chats": [
      {
        "timestamp": "2023-01-21T12:00:00",
        "user": "Bob",
        "content": {
          "text": "Test message 1",
          "file": ""
        }
      },
      {
        "timestamp": "2023-01-21T12:30:00",
        "user": "Bob",
        "content": {
          "text": "Test message 2",
          "file": ""
        }
      },
      {
        "timestamp": "2023-01-21T13:00:00",
        "user": "Alice",
        "content": {
          "text": "Test message 3",
          "file": ""
        }
      },
      {
        "timestamp": "2023-01-21T13:30:00",
        "user": "Alice",
        "content": {
          "text": "Test message 4",
          "file": ""
        }
      },
      {
        "timestamp": "2023-01-21T14:00:00",
        "user": "Bob",
        "content": {
          "text": "Test message 5",
          "file": ""
        }
      }
    ]
  }
  